{
	"0,0": [
		"South",
		"East"
	],
	"0,1": [
		"South",
		"North"
	],
	"0,2": [
		"South",
		"East",
		"North"
	],
	"0,3": [
		"South",
		"East",
		"North"
	],
	"0,4": [
		"East",
		"North"
	],
	"0,5": [
		"East",
		"South"
	],
	"0,6": [
		"North",
		"South"
	],
	"0,7": [
		"North",
		"South",
		"East"
	],
	"0,8": [
		"North",
		"East",
		"South"
	],
	"0,9": [
		"North",
		"East"
	],
	"0,10": [
		"East",
		"South"
	],
	"0,11": [
		"North",
		"East"
	],
	"0,12": [
		"South"
	],
	"0,13": [
		"East",
		"North",
		"South"
	],
	"0,14": [
		"North",
		"East"
	],
	"0,15": [
		"East",
		"South"
	],
	"0,16": [
		"North",
		"South"
	],
	"0,17": [
		"North",
		"East",
		"South"
	],
	"0,18": [
		"North",
		"South"
	],
	"0,19": [
		"North",
		"East"
	],
	"0,20": [
		"East",
		"South"
	],
	"0,21": [
		"North",
		"South"
	],
	"0,22": [
		"North",
		"East",
		"South"
	],
	"0,23": [
		"North",
		"South"
	],
	"0,24": [
		"North",
		"East"
	],
	"1,0": [
		"West",
		"East"
	],
	"1,1": [
		"East"
	],
	"1,2": [
		"West",
		"East"
	],
	"1,3": [
		"West",
		"East"
	],
	"1,4": [
		"South",
		"West"
	],
	"1,5": [
		"South",
		"North",
		"West"
	],
	"1,6": [
		"East",
		"North"
	],
	"1,7": [
		"West",
		"East"
	],
	"1,8": [
		"West",
		"East"
	],
	"1,9": [
		"West",
		"South"
	],
	"1,10": [
		"North",
		"West"
	],
	"1,11": [
		"West",
		"South"
	],
	"1,12": [
		"North",
		"East"
	],
	"1,13": [
		"East",
		"West"
	],
	"1,14": [
		"West",
		"East"
	],
	"1,15": [
		"East",
		"West"
	],
	"1,16": [
		"South",
		"East"
	],
	"1,17": [
		"West",
		"East",
		"North"
	],
	"1,18": [
		"South"
	],
	"1,19": [
		"West",
		"North"
	],
	"1,20": [
		"East",
		"West"
	],
	"1,21": [
		"South",
		"East"
	],
	"1,22": [
		"West",
		"East",
		"North"
	],
	"1,23": [
		"South"
	],
	"1,24": [
		"West",
		"North"
	],
	"2,0": [
		"West",
		"South"
	],
	"2,1": [
		"North",
		"West"
	],
	"2,2": [
		"West",
		"East"
	],
	"2,3": [
		"West",
		"South",
		"East"
	],
	"2,4": [
		"North",
		"East"
	],
	"2,5": [
		"East",
		"South"
	],
	"2,6": [
		"North",
		"West"
	],
	"2,7": [
		"West"
	],
	"2,8": [
		"West",
		"East",
		"South"
	],
	"2,9": [
		"North",
		"East"
	],
	"2,10": [
		"East",
		"South"
	],
	"2,11": [
		"North",
		"East"
	],
	"2,12": [
		"West",
		"East"
	],
	"2,13": [
		"East",
		"West"
	],
	"2,14": [
		"West",
		"South",
		"East"
	],
	"2,15": [
		"North",
		"West"
	],
	"2,16": [
		"West",
		"East"
	],
	"2,17": [
		"West",
		"South"
	],
	"2,18": [
		"North",
		"South"
	],
	"2,19": [
		"North",
		"South"
	],
	"2,20": [
		"North",
		"West"
	],
	"2,21": [
		"West",
		"East"
	],
	"2,22": [
		"West",
		"South"
	],
	"2,23": [
		"North",
		"South"
	],
	"2,24": [
		"North",
		"East"
	],
	"3,0": [
		"South",
		"East"
	],
	"3,1": [
		"South",
		"North"
	],
	"3,2": [
		"West",
		"North"
	],
	"3,3": [
		"West",
		"East"
	],
	"3,4": [
		"West",
		"East"
	],
	"3,5": [
		"South",
		"East",
		"West"
	],
	"3,6": [
		"East",
		"North"
	],
	"3,7": [
		"South",
		"East"
	],
	"3,8": [
		"West",
		"North"
	],
	"3,9": [
		"West",
		"South"
	],
	"3,10": [
		"North",
		"West",
		"East"
	],
	"3,11": [
		"West",
		"East"
	],
	"3,12": [
		"West",
		"South"
	],
	"3,13": [
		"North",
		"West"
	],
	"3,14": [
		"West",
		"South"
	],
	"3,15": [
		"North"
	],
	"3,16": [
		"West",
		"South"
	],
	"3,17": [
		"North"
	],
	"3,18": [
		"South",
		"East"
	],
	"3,19": [
		"South",
		"North"
	],
	"3,20": [
		"East",
		"North"
	],
	"3,21": [
		"West",
		"South"
	],
	"3,22": [
		"North"
	],
	"3,23": [
		"South",
		"East"
	],
	"3,24": [
		"West",
		"North",
		"East"
	],
	"4,0": [
		"West",
		"South"
	],
	"4,1": [
		"North",
		"East"
	],
	"4,2": [
		"South"
	],
	"4,3": [
		"West",
		"North"
	],
	"4,4": [
		"West",
		"East"
	],
	"4,5": [
		"West",
		"East"
	],
	"4,6": [
		"West"
	],
	"4,7": [
		"West",
		"South"
	],
	"4,8": [
		"North",
		"South"
	],
	"4,9": [
		"North",
		"East"
	],
	"4,10": [
		"West"
	],
	"4,11": [
		"West",
		"South"
	],
	"4,12": [
		"North",
		"South",
		"East"
	],
	"4,13": [
		"North",
		"East"
	],
	"4,14": [
		"East",
		"South"
	],
	"4,15": [
		"North",
		"East"
	],
	"4,16": [
		"South",
		"East"
	],
	"4,17": [
		"East",
		"North"
	],
	"4,18": [
		"West",
		"East",
		"South"
	],
	"4,19": [
		"North"
	],
	"4,20": [
		"South",
		"West"
	],
	"4,21": [
		"East",
		"North"
	],
	"4,22": [
		"South",
		"East"
	],
	"4,23": [
		"West",
		"North"
	],
	"4,24": [
		"West",
		"East"
	],
	"5,0": [
		"East"
	],
	"5,1": [
		"West",
		"South"
	],
	"5,2": [
		"North",
		"South"
	],
	"5,3": [
		"North",
		"East"
	],
	"5,4": [
		"West",
		"East"
	],
	"5,5": [
		"West",
		"East"
	],
	"5,6": [
		"East",
		"South"
	],
	"5,7": [
		"North",
		
		"East"
	],
	"5,8": [
		
		"East"
	],
	"5,9": [
		"West",
		"East"
	],
	"5,10": [
		"East",
		"South"
	],
	"5,11": [
		"North",
		"East"
	],
	"5,12": [
		"West"
	],
	"5,13": [
		"West",
		"South"
	],
	"5,14": [
		"North",
		"West"
	],
	"5,15": [
		"West"
	],
	"5,16": [
		"West",
		"East"
	],
	"5,17": [
		"East",
		"West"
	],
	"5,18": [
		"West",
		"South"
	],
	"5,19": [
		"North",
		"East",
		"South"
	],
	"5,20": [
		"North",
		"East"
	],
	"5,21": [
		"South",
		"West"
	],
	"5,22": [
		"West",
		"North"
	],
	"5,23": [
		"South"
	],
	"5,24": [
		"West",
		"North"
	],
	"6,0": [
		"East",
		"West"
	],
	"6,1": [
		"South",
		"East"
	],
	"6,2": [
		"South",
		"North"
	],
	"6,3": [
		"West",
		"North"
	],
	"6,4": [
		"West",
		"East"
	],
	"6,5": [
		"West",
		"South"
	],
	"6,6": [
		"North",
		"West"
	],
	"6,7": [
		"West",
		"East"
	],
	"6,8": [
		"West",
		"East"
	],
	"6,9": [
		"West",
		"South"
	],
	"6,10": [
		"North",
		"West"
	],
	"6,11": [
		"West",
		"East"
	],
	"6,12": [
		"East",
		"South"
	],
	"6,13": [
		"North",
		"East"
	],
	"6,14": [
		"South",
		"East"
	],
	"6,15": [
		"South",
		"North"
	],
	"6,16": [
		"West",
		"North"
	],
	"6,17": [
		"South",
		"West"
	],
	"6,18": [
		"South",
		"North"
	],
	"6,19": [
		"West",
		"North"
	],
	"6,20": [
		"West",
		"East"
	],
	"6,21": [
		"South",
		"East"
	],
	"6,22": [
		"South",
		"North"
	],
	"6,23": [
		"South",
		"North"
	],
	"6,24": [
		"East",
		"North"
	],
	"7,0": [
		"South",
		"West"
	],
	"7,1": [
		"West",
		"North"
	],
	"7,2": [
		"South",
		"East"
	],
	"7,3": [
		"South",
		"North"
	],
	"7,4": [
		"West",
		"North"
	],
	"7,5": [
		"South",
		"East"
	],
	"7,6": [
		"South",
		"North"
	],
	"7,7": [
		"West",
		"North"
	],
	"7,8": [
		"West",
		"South"
	],
	"7,9": [
		"North",
		"South"
	],
	"7,10": [
		"North",
		"East"
	],
	"7,11": [
		"West",
		"South"
	],
	"7,12": [
		"North",
		"West"
	],
	"7,13": [
		"West",
		"East"
	],
	"7,14": [
		"West",
		"South"
	],
	"7,15": [
		"North",
		"East"
	],
	"7,16": [
		"East"
	],
	"7,17": [
		"East",
		"South"
	],
	"7,18": [
		"North",
		"South"
	],
	"7,19": [
		"North",
		"East"
	],
	"7,20": [
		"West"
	],
	"7,21": [
		"West",
		"South",
		"East"
	],
	"7,22": [
		"North"
	],
	"7,23": [
		"East",
		"South"
	],
	"7,24": [
		"North",
		"West",
		"East"
	],
	"8,0": [
		"East",
		"South"
	],
	"8,1": [
		"North"
	],
	"8,2": [
		"West",
		"East"
	],
	"8,3": [
		"South"
	],
	"8,4": [
		"South",
		"East",
		"North"
	],
	"8,5": [
		"West",
		"North"
	],
	"8,6": [
		"East"
	],
	"8,7": [
		"South",
		"East"
	],
	"8,8": [
		"South",
		"North"
	],
	"8,9": [
		"East",
		"North"
	],
	"8,10": [
		"West",
		"South"
	],
	"8,11": [
		"North",
		"East",
		"South"
	],
	"8,12": [
		"North",
		"East"
	],
	"8,13": [
		"West",
		"South"
	],
	"8,14": [
		"North",
		"East"
	],
	"8,15": [
		"West",
		"East"
	],
	"8,16": [
		"East",
		"West"
	],
	"8,17": [
		"South",
		"West"
	],
	"8,18": [
		"East",
		"North"
	],
	"8,19": [
		"West",
		"South"
	],
	"8,20": [
		"North",
		"East"
	],
	"8,21": [
		"West"
	],
	"8,22": [
		"East",
		"South"
	],
	"8,23": [
		"North",
		"West"
	],
	"8,24": [
		"West",
		"East"
	],
	"9,0": [
		"South",
		"East",
		"West"
	],
	"9,1": [
		"South",
		"North",
		"East"
	],
	"9,2": [
		"West",
		"North"
	],
	"9,3": [
		"South",
		"East"
	],
	"9,4": [
		"West",
		"North"
	],
	"9,5": [
		"South",
		"East"
	],
	"9,6": [
		"South",
		"North",
		"West"
	],
	"9,7": [
		"West",
		"North",
		"East"
	],
	"9,8": [
		"East"
	],
	"9,9": [
		"South",
		"West"
	],
	"9,10": [
		"South",
		"North"
	],
	"9,11": [
		"West",
		"North"
	],
	"9,12": [
		"West",
		"South"
	],
	"9,13": [
		"North",
		"East"
	],
	"9,14": [
		"West",
		"East"
	],
	"9,15": [
		"West",
		"South"
	],
	"9,16": [
		"North",
		"West"
	],
	"9,17": [
		"East",
		"South"
	],
	"9,18": [
		"North",
		"West"
	],
	"9,19": [
		"East"
	],
	"9,20": [
		"West",
		"South"
	],
	"9,21": [
		"North",
		"South"
	],
	"9,22": [
		"North",
		"West"
	],
	"9,23": [
		"South"
	],
	"9,24": [
		"West",
		"North"
	],
	"10,0": [
		"West",
		"East"
	],
	"10,1": [
		"West",
		"East"
	],
	"10,2": [
		"South"
	],
	"10,3": [
		"West",
		"South",
		"North"
	],
	"10,4": [
		"North"
	],
	"10,5": [
		"West",
		"South"
	],
	"10,6": [
		"North",
		"East"
	],
	"10,7": [
		"West",
		"East"
	],
	"10,8": [
		"South",
		"West",
		"East"
	],
	"10,9": [
		"South",
		"North"
	],
	"10,10": [
		"South",
		"North"
	],
	"10,11": [
		"East",
		"North"
	],
	"10,12": [
		"South",
		"East"
	],
	"10,13": [
		"West",
		"East",
		"North"
	],
	"10,14": [
		"West",
		"South"
	],
	"10,15": [
		"North",
		"South"
	],
	"10,16": [
		"North",
		"South"
	],
	"10,17": [
		"North",
		"West"
	],
	"10,18": [
		"East",
		"South"
	],
	"10,19": [
		"North",
		"East",
		"West"
	],
	"10,20": [
		"South"
	],
	"10,21": [
		"South",
		"North"
	],
	"10,22": [
		"South",
		"North",
		"East"
	],
	"10,23": [
		"South",
		"North",
		"East"
	],
	"10,24": [
		"East",
		"North"
	],
	"11,0": [
		"West",
		"East"
	],
	"11,1": [
		"West",
		"East"
	],
	"11,2": [
		"East",
		"South"
	],
	"11,3": [
		"North"
	],
	"11,4": [
		"South",
		"East"
	],
	"11,5": [
		"East",
		"North"
	],
	"11,6": [
		"West",
		"East"
	],
	"11,7": [
		"West",
		"East"
	],
	"11,8": [
		"West"
	],
	"11,9": [
		"East",
		"South"
	],
	"11,10": [
		"North",
		"East"
	],
	"11,11": [
		"East",
		"West"
	],
	"11,12": [
		"West",
		"East"
	],
	"11,13": [
		"West",
		"South"
	],
	"11,14": [
		"North",
		"East"
	],
	"11,15": [
		"East",
		"South"
	],
	"11,16": [
		"North",
		"South"
	],
	"11,17": [
		"North",
		"South"
	],
	"11,18": [
		"North",
		"West"
	],
	"11,19": [
		"West",
		"South"
	],
	"11,20": [
		"North",
		"South"
	],
	"11,21": [
		"North",
		"East"
	],
	"11,22": [
		"West",
		"East"
	],
	"11,23": [
		"West"
	],
	"11,24": [
		"East",
		"West"
	],
	"12,0": [
		"West",
		"East"
	],
	"12,1": [
		"West",
		"South"
	],
	"12,2": [
		"North",
		"West"
	],
	"12,3": [
		"South",
		"East"
	],
	"12,4": [
		"West",
		"North"
	],
	"12,5": [
		"South",
		"West",
		"East"
	],
	"12,6": [
		"West",
		"North"
	],
	"12,7": [
		"West",
		"South"
	],
	"12,8": [
		"North",
		"South"
	],
	"12,9": [
		"North",
		"West"
	],
	"12,10": [
		"West"
	],
	"12,11": [
		"East",
		"West"
	],
	"12,12": [
		"West",
		"East"
	],
	"12,13": [
		"South",
		"East"
	],
	"12,14": [
		"West",
		"North"
	],
	"12,15": [
		"East",
		"West",
		"South"
	],
	"12,16": [
		"North",
		"South",
		"East"
	],
	"12,17": [
		"North",
		"East",
		"South"
	],
	"12,18": [
		"North",
		"East"
	],
	"12,19": [
		"East",
		"South"
	],
	"12,20": [
		"North",
		"East"
	],
	"12,21": [
		"West",
		"East"
	],
	"12,22": [
		"West",
		"East"
	],
	"12,23": [
		"East",
		"South"
	],
	"12,24": [
		"North",
		"West"
	],
	"13,0": [
		"West",
		"East",
		"South"
	],
	"13,1": [
		"North",
		"South"
	],
	"13,2": [
		"North",
		"East"
	],
	"13,3": [
		"West",
		"South"
	],
	"13,4": [
		"North",
		"East"
	],
	"13,5": [
		"West",
		"East"
	],
	"13,6": [
		"East",
		"South"
	],
	"13,7": [
		"North",
		"South"
	],
	"13,8": [
		"North",
		"East"
	],
	"13,9": [
		"East",
		"South"
	],
	"13,10": [
		"North",
		"South"
	],
	"13,11": [
		"North",
		"West"
	],
	"13,12": [
		"West",
		"East"
	],
	"13,13": [
		"West",
		"South"
	],
	"13,14": [
		"North",
		"East"
	],
	"13,15": [
		"East",
		"West"
	],
	"13,16": [
		"West",
		"East"
	],
	"13,17": [
		"West",
		"East"
	],
	"13,18": [
		"West",
		"South"
	],
	"13,19": [
		"North",
		"West"
	],
	"13,20": [
		"West",
		"East"
	],
	"13,21": [
		"West",
		"East"
	],
	"13,22": [
		"West",
		"East"
	],
	"13,23": [
		"East",
		"West"
	],
	"13,24": [
		"East"
	],
	"14,0": [
		"West",
		"South"
	],
	"14,1": [
		"North",
		"East"
	],
	"14,2": [
		"West",
		"East"
	],
	"14,3": [
		"South",
		"East"
	],
	"14,4": [
		"West",
		"North"
	],
	"14,5": [
		"West"
	],
	"14,6": [
		"East",
		"West"
	],
	"14,7": [
		"East"
	],
	"14,8": [
		"West",
		"South"
	],
	"14,9": [
		"North",
		"West"
	],
	"14,10": [
		"South",
		"East"
	],
	"14,11": [
		"South",
		"North",
		"East"
	],
	"14,12": [
		"West",
		"North"
	],
	"14,13": [
		"South",
		"East"
	],
	"14,14": [
		"West",
		"North"
	],
	"14,15": [
		"East",
		"West"
	],
	"14,16": [
		"West",
		"East"
	],
	"14,17": [
		"West",
		"East"
	],
	"14,18": [
		"South"
	],
	"14,19": [
		"South",
		"North"
	],
	"14,20": [
		"West",
		"North"
	],
	"14,21": [
		"West",
		"East"
	],
	"14,22": [
		"West"
	],
	"14,23": [
		"East",
		"West"
	],
	"14,24": [
		"East",
		"West"
	],
	"15,0": [
		"South",
		"East"
	],
	"15,1": [
		"West",
		"North"
	],
	"15,2": [
		"West"
	],
	"15,3": [
		"West",
		"South"
	],
	"15,4": [
		"North",
		"South"
	],
	"15,5": [
		"North",
		"South"
	],
	"15,6": [
		"North",
		"West",
		"East"
	],
	"15,7": [
		"South",
		"East",
		"West"
	],
	"15,8": [
		"South",
		"North",
		"East"
	],
	"15,9": [
		"South",
		"North"
	],
	"15,10": [
		"West",
		"North"
	],
	"15,11": [
		"West",
		"East",
		"South"
	],
	"15,12": [
		"North",
		"East"
	],
	"15,13": [
		"West",
		"East"
	],
	"15,14": [
		"East",
		"South"
	],
	"15,15": [
		"North",
		"West"
	],
	"15,16": [
		"West",
		"East"
	],
	"15,17": [
		"West",
		"South"
	],
	"15,18": [
		"North",
		"South"
	],
	"15,19": [
		"North",
		"South"
	],
	"15,20": [
		"North",
		"East"
	],
	"15,21": [
		"West",
		"South"
	],
	"15,22": [
		"North",
		"South"
	],
	"15,23": [
		"North",
		"West"
	],
	"15,24": [
		"East",
		"West"
	],
	"16,0": [
		"West",
		"East"
	],
	"16,1": [
		"East",
		"South"
	],
	"16,2": [
		"North",
		"South",
		"East"
	],
	"16,3": [
		"North",
		"South"
	],
	"16,4": [
		"North",
		"East"
	],
	"16,5": [
		"East",
		"South"
	],
	"16,6": [
		"North",
		"East",
		"West"
	],
	"16,7": [
		"West",
		"East"
	],
	"16,8": [
		"West",
		"South"
	],
	"16,9": [
		"North",
		"South"
	],
	"16,10": [
		"North"
	],
	"16,11": [
		"West",
		"East"
	],
	"16,12": [
		"West",
		"East"
	],
	"16,13": [
		"West",
		"South"
	],
	"16,14": [
		"North",
		"West"
	],
	"16,15": [
		"East"
	],
	"16,16": [
		"West",
		"South",
		"East"
	],
	"16,17": [
		"North",
		"East"
	],
	"16,18": [
		"East"
	],
	"16,19": [
		"South",
		"East"
	],
	"16,20": [
		"West",
		"North",
		"East"
	],
	"16,21": [
		"East",
		"South"
	],
	"16,22": [
		"North",
		"South",
		"East"
	],
	"16,23": [
		"North",
		"South"
	],
	"16,24": [
		"North",
		"West"
	],
	"17,0": [
		"West",
		"South"
	],
	"17,1": [
		"North",
		"West"
	],
	"17,2": [
		"West",
		"South"
	],
	"17,3": [
		"North",
		"East"
	],
	"17,4": [
		"West",
		"South",
		"East"
	],
	"17,5": [
		"North",
		"West"
	],
	"17,6": [
		"West",
		"East"
	],
	"17,7": [
		"West",
		"South"
	],
	"17,8": [
		"North",
		"South"
	],
	"17,9": [
		"North",
		"South"
	],
	"17,10": [
		"North",
		"East"
	],
	"17,11": [
		"West",
		"East"
	],
	"17,12": [
		"West",
		"South",
		"East"
	],
	"17,13": [
		"North",
		"East"
	],
	"17,14": [
		"East",
		"South"
	],
	"17,15": [
		"North",
		"West"
	],
	"17,16": [
		"West",
		"East"
	],
	"17,17": [
		"West",
		"South"
	],
	"17,18": [
		"North",
		"West"
	],
	"17,19": [
		"West",
		"East"
	],
	"17,20": [
		"West"
	],
	"17,21": [
		"East",
		"West"
	],
	"17,22": [
		"West",
		"East"
	],
	"17,23": [
		"East",
		"South"
	],
	"17,24": [
		"North"
	],
	"18,0": [
		"South",
		"East"
	],
	"18,1": [
		"East",
		"North"
	],
	"18,2": [
		"South",
		"East"
	],
	"18,3": [
		"West",
		"North"
	],
	"18,4": [
		"West",
		"South"
	],
	"18,5": [
		"North",
		"East"
	],
	"18,6": [
		"West",
		"East"
	],
	"18,7": [
		"South",
		"East"
	],
	"18,8": [
		"South",
		"North"
	],
	"18,9": [
		"South",
		"North"
	],
	"18,10": [
		"West",
		"North"
	],
	"18,11": [
		"West",
		"East"
	],
	"18,12": [
		"West",
		"East"
	],
	"18,13": [
		"West",
		"South"
	],
	"18,14": [
		"North",
		"West",
		"South"
	],
	"18,15": [
		"North"
	],
	"18,16": [
		"West",
		"East"
	],
	"18,17": [
		"South"
	],
	"18,18": [
		"East",
		"North"
	],
	"18,19": [
		"West",
		"South"
	],
	"18,20": [
		"North",
		"East"
	],
	"18,21": [
		"East",
		"West"
	],
	"18,22": [
		"West",
		"East"
	],
	"18,23": [
		"East",
		"South",
		"West"
	],
	"18,24": [
		"North",
		"East"
	],
	"19,0": [
		"West",
		"East"
	],
	"19,1": [
		"East",
		"West"
	],
	"19,2": [
		"West",
		"East"
	],
	"19,3": [
		"South",
		"East"
	],
	"19,4": [
		"East",
		"North"
	],
	"19,5": [
		"West",
		"East"
	],
	"19,6": [
		"West",
		"East"
	],
	"19,7": [
		"West",
		"South"
	],
	"19,8": [
		"North",
		"East"
	],
	"19,9": [
		"East",
		"South"
	],
	"19,10": [
		"North",
		"East"
	],
	"19,11": [
		"West",
		"East"
	],
	"19,12": [
		"West",
		"South"
	],
	"19,13": [
		"North"
	],
	"19,14": [
		"South",
		"East"
	],
	"19,15": [
		"South",
		"North"
	],
	"19,16": [
		"West",
		"North"
	],
	"19,17": [
		"East",
		"South"
	],
	"19,18": [
		"North",
		"West",
		"South"
	],
	"19,19": [
		"North",
		"East"
	],
	"19,20": [
		"West",
		"South"
	],
	"19,21": [
		"North",
		"West"
	],
	"19,22": [
		"West",
		"South"
	],
	"19,23": [
		"North",
		"West"
	],
	"19,24": [
		"West",
		"East"
	],
	"20,0": [
		"West",
		"East"
	],
	"20,1": [
		"South",
		"West"
	],
	"20,2": [
		"West",
		"North"
	],
	"20,3": [
		"West",
		"East"
	],
	"20,4": [
		"South",
		"West"
	],
	"20,5": [
		"West",
		"North"
	],
	"20,6": [
		"West",
		"South"
	],
	"20,7": [
		"North",
		"East"
	],
	"20,8": [
		"West",
		"South"
	],
	"20,9": [
		"North",
		"East",
		"West"
	],
	"20,10": [
		"West"
	],
	"20,11": [
		"West",
		"South"
	],
	"20,12": [
		"North",
		"South"
	],
	"20,13": [
		"North",
		"East"
	],
	"20,14": [
		"West",
		"South",
		"East"
	],
	"20,15": [
		"North",
		"South"
	],
	"20,16": [
		"North",
		"South"
	],
	"20,17": [
		"North",
		"West"
	],
	"20,18": [
		"South",
		"East"
	],
	"20,19": [
		"West",
		"North"
	],
	"20,20": [
		"East",
		"South"
	],
	"20,21": [
		"North",
		"South"
	],
	"20,22": [
		"North"
	],
	"20,23": [
		"South",
		"East"
	],
	"20,24": [
		"West",
		"North"
	],
	"21,0": [
		"West",
		"East"
	],
	"21,1": [
		"East",
		"South"
	],
	"21,2": [
		"North",
		"East"
	],
	"21,3": [
		"West",
		"South"
	],
	"21,4": [
		"North"
	],
	"21,5": [
		"South",
		"East"
	],
	"21,6": [
		"South",
		"North"
	],
	"21,7": [
		"West",
		"North"
	],
	"21,8": [
		"South",
		"East"
	],
	"21,9": [
		"West",
		"North",
		"East"
	],
	"21,10": [
		"South",
		"East"
	],
	"21,11": [
		"South",
		"North"
	],
	"21,12": [
		"South",
		"North"
	],
	"21,13": [
		"West",
		"North"
	],
	"21,14": [
		"West",
		"East",
		"South"
	],
	"21,15": [
		"North",
		"South",
		"East"
	],
	"21,16": [
		"North",
		"South"
	],
	"21,17": [
		"North"
	],
	"21,18": [
		"West",
		"South"
	],
	"21,19": [
		"North",
		"South"
	],
	"21,20": [
		"North",
		"West"
	],
	"21,21": [
		"East"
	],
	"21,22": [
		"South",
		"East"
	],
	"21,23": [
		"West",
		"North",
		"South"
	],
	"21,24": [
		"North",
		"East"
	],
	"22,0": [
		"West",
		"East"
	],
	"22,1": [
		"East",
		"West"
	],
	"22,2": [
		"West"
	],
	"22,3": [
		"South",
		"East"
	],
	"22,4": [
		"East",
		"North"
	],
	"22,5": [
		"West",
		"East"
	],
	"22,6": [
		"East"
	],
	"22,7": [
		"South",
		"East"
	],
	"22,8": [
		"West",
		"North"
	],
	"22,9": [
		"West",
		"East"
	],
	"22,10": [
		"West",
		"East"
	],
	"22,11": [
		"South"
	],
	"22,12": [
		"East",
		"North"
	],
	"22,13": [
		"South"
	],
	"22,14": [
		"West",
		"North"
	],
	"22,15": [
		"West",
		"East",
		"South"
	],
	"22,16": [
		"North"
	],
	"22,17": [
		"South",
		"East"
	],
	"22,18": [
		"South",
		"North"
	],
	"22,19": [
		"South",
		"North"
	],
	"22,20": [
		"South",
		"North"
	],
	"22,21": [
		"South",
		"North",
		"West"
	],
	"22,22": [
		"West",
		"North",
		"East"
	],
	"22,23": [
		"South",
		"East"
	],
	"22,24": [
		"West",
		"North"
	],
	"23,0": [
		"West",
		"East"
	],
	"23,1": [
		"South",
		"West"
	],
	"23,2": [
		"South",
		"North"
	],
	"23,3": [
		"West",
		"North"
	],
	"23,4": [
		"East",
		"West"
	],
	"23,5": [
		"West",
		"East"
	],
	"23,6": [
		"South",
		"West"
	],
	"23,7": [
		"West",
		"North",
		"South"
	],
	"23,8": [
		"North",
		"East"
	],
	"23,9": [
		"West",
		"East"
	],
	"23,10": [
		"West",
		"South"
	],
	"23,11": [
		"North",
		"East"
	],
	"23,12": [
		"South",
		"West"
	],
	"23,13": [
		"East",
		"North"
	],
	"23,14": [
		"East"
	],
	"23,15": [
		"West",
		"South"
	],
	"23,16": [
		"North",
		"East"
	],
	"23,17": [
		"West",
		"East"
	],
	"23,18": [
		"East",
		"South"
	],
	"23,19": [
		"North",
		"South"
	],
	"23,20": [
		"North",
		"South"
	],
	"23,21": [
		"North",
		"East"
	],
	"23,22": [
		"West",
		"East"
	],
	"23,23": [
		"West",
		"East"
	],
	"23,24": [
		"East"
	],
	"24,0": [
		"West",
		"South"
	],
	"24,1": [
		"North",
		"South"
	],
	"24,2": [
		"North",
		"South"
	],
	"24,3": [
		"North"
	],
	"24,4": [
		"South",
		"West"
	],
	"24,5": [
		"West",
		"North"
	],
	"24,6": [
		"South"
	],
	"24,7": [
		"South",
		"North"
	],
	"24,8": [
		"West",
		"North"
	],
	"24,9": [
		"West",
		"South"
	],
	"24,10": [
		"North"
	],
	"24,11": [
		"West",
		"South"
	],
	"24,12": [
		"North",
		"South"
	],
	"24,13": [
		"North",
		"West"
	],
	"24,14": [
		"South",
		"West"
	],
	"24,15": [
		"South",
		"North"
	],
	"24,16": [
		"West",
		"North"
	],
	"24,17": [
		"West",
		"South"
	],
	"24,18": [
		"North",
		"West"
	],
	"24,19": [
		"South"
	],
	"24,20": [
		"South",
		"North"
	],
	"24,21": [
		"West",
		"North"
	],
	"24,22": [
		"West"
	],
	"24,23": [
		"West",
		"South"
	],
	"24,24": [
		"North",
		"West"
	]
}