{
	"0,0": [
		"East"
	],
	"0,1": [
		"South",
		"East"
	],
	"0,2": [
		"South",
		"North",
		"East"
	],
	"0,3": [
		"South",
		"North"
	],
	"0,4": [
		"East",
		"North"
	],
	"0,5": [
		"East",
		"South"
	],
	"0,6": [
		"North"
	],
	"0,7": [
		"South",
		"East"
	],
	"0,8": [
		"South",
		"East",
		"North"
	],
	"0,9": [
		"South",
		"North",
		"East"
	],
	"0,10": [
		"South",
		"North"
	],
	"0,11": [
		"South",
		"North"
	],
	"0,12": [
		"East",
		"North",
		"South"
	],
	"0,13": [
		"North",
		"South"
	],
	"0,14": [
		"North",
		"East"
	],
	"0,15": [
		"East",
		"South"
	],
	"0,16": [
		"North",
		"East",
		"South"
	],
	"0,17": [
		"North",
		"South"
	],
	"0,18": [
		"North",
		"South"
	],
	"0,19": [
		"North"
	],
	"1,0": [
		"South",
		"West",
		"East"
	],
	"1,1": [
		"West",
		"North"
	],
	"1,2": [
		"West",
		"East"
	],
	"1,3": [
		"South",
		"East"
	],
	"1,4": [
		"South",
		"West",
		"North"
	],
	"1,5": [
		"South",
		"North",
		"West"
	],
	"1,6": [
		"South",
		"North"
	],
	"1,7": [
		"West",
		"North"
	],
	"1,8": [
		"West",
		"East"
	],
	"1,9": [
		"West",
		"East"
	],
	"1,10": [
		"East",
		"South"
	],
	"1,11": [
		"North",
		"East"
	],
	"1,12": [
		"East",
		"West"
	],
	"1,13": [
		"East"
	],
	"1,14": [
		"West",
		"East"
	],
	"1,15": [
		"East",
		"West"
	],
	"1,16": [
		"West",
		"South"
	],
	"1,17": [
		"North",
		"South"
	],
	"1,18": [
		"North",
		"South"
	],
	"1,19": [
		"North",
		"East"
	],
	"2,0": [
		"West",
		"South"
	],
	"2,1": [
		"North",
		"East"
	],
	"2,2": [
		"West",
		"East"
	],
	"2,3": [
		"West",
		"South"
	],
	"2,4": [
		"North",
		"East",
		"South"
	],
	"2,5": [
		"North",
		"East"
	],
	"2,6": [
		"East",
		"South"
	],
	"2,7": [
		"North",
		"East"
	],
	"2,8": [
		"West",
		"East"
	],
	"2,9": [
		"West"
	],
	"2,10": [
		"East",
		"West"
	],
	"2,11": [
		"West",
		"East"
	],
	"2,12": [
		"South",
		"West"
	],
	"2,13": [
		"East",
		"North",
		"West"
	],
	"2,14": [
		"West"
	],
	"2,15": [
		"East",
		"West"
	],
	"2,16": [
		"South"
	],
	"2,17": [
		"South",
		"North"
	],
	"2,18": [
		"East",
		"North"
	],
	"2,19": [
		"West",
		"East"
	],
	"3,0": [
		"South",
		"East"
	],
	"3,1": [
		"West",
		"North"
	],
	"3,2": [
		"West",
		"South"
	],
	"3,3": [
		"North",
		"East"
	],
	"3,4": [
		"West",
		"East"
	],
	"3,5": [
		"West",
		"South"
	],
	"3,6": [
		"North",
		"West"
	],
	"3,7": [
		"West"
	],
	"3,8": [
		"West",
		"South",
		"East"
	],
	"3,9": [
		"North",
		"South"
	],
	"3,10": [
		"North",
		"West"
	],
	"3,11": [
		"West",
		"East",
		"South"
	],
	"3,12": [
		"North"
	],
	"3,13": [
		"South",
		"West"
	],
	"3,14": [
		"North"
	],
	"3,15": [
		"East",
		"West"
	],
	"3,16": [
		"East",
		"South"
	],
	"3,17": [
		"North",
		"South"
	],
	"3,18": [
		"North",
		"West"
	],
	"3,19": [
		"West",
		"East"
	],
	"4,0": [
		"West",
		"South"
	],
	"4,1": [
		"North",
		"East"
	],
	"4,2": [
		"South",
		"East"
	],
	"4,3": [
		"West",
		"North"
	],
	"4,4": [
		"West",
		"South"
	],
	"4,5": [
		"North",
		"East"
	],
	"4,6": [
		"East",
		"South"
	],
	"4,7": [
		"North",
		"East"
	],
	"4,8": [
		"West"
	],
	"4,9": [
		
		"South"
	],
	"4,10": [
		"North",
		"East"
	],
	"4,11": [
		"West",
		"South"
	],
	"4,12": [
		"North",
		"South"
	],
	"4,13": [
		"North",
		"East"
	],
	"4,14": [
		"East",
		"South"
	],
	"4,15": [
		"North",
		"West"
	],
	"4,16": [
		"South",
		"West"
	],
	"4,17": [
		"South",
		"North",
		"East"
	],
	"4,18": [
		"East",
		"North"
	],
	"4,19": [
		"West",
		"East"
	],
	"5,0": [
		"South",
		"East"
	],
	"5,1": [
		"West",
		"North"
	],
	"5,2": [
		"West",
		"East"
	],
	"5,3": [
		"South"
	],
	"5,4": [
		"East",
		"North"
	],
	"5,5": [
		"West",
		"South",
		"East"
	],
	"5,6": [
		"North",
		"West"
	],
	"5,7": [
		"West",
		"East"
	],
	"5,8": [
		"East",
		"South"
	],
	"5,9": [
		"North"
	],
	"5,10": [
		"West",
		"South"
	],
	"5,11": [
		"North",
		"East",
		"South"
	],
	"5,12": [
		"North",
		"East"
	],
	"5,13": [
		"West",
		"South"
	],
	"5,14": [
		"North",
		"West"
	],
	"5,15": [
		"South"
	],
	"5,16": [
		"East",
		"North"
	],
	"5,17": [
		"West"
	],
	"5,18": [
		"East",
		"West"
	],
	"5,19": [
		"West",
		"East"
	],
	"6,0": [
		"West",
		"East",
		"South"
	],
	"6,1": [
		"North"
	],
	"6,2": [
		"West",
		"South"
	],
	"6,3": [
		"North",
		"South"
	],
	"6,4": [
		"North",
		"West"
	],
	"6,5": [
		"West"
	],
	"6,6": [
		"South",
		"East"
	],
	"6,7": [
		"West",
		"North"
	],
	"6,8": [
		"South",
		"West"
	],
	"6,9": [
		"East",
		"North"
	],
	"6,10": [
		"South",
		"East"
	],
	"6,11": [
		"West",
		"North"
	],
	"6,12": [
		"West",
		"South"
	],
	"6,13": [
		"North",
		"South",
		"East"
	],
	"6,14": [
		"North",
		"South"
	],
	"6,15": [
		"North",
		"East"
	],
	"6,16": [
		"East",
		"West",
		"South"
	],
	"6,17": [
		"East",
		"South",
		"North"
	],
	"6,18": [
		"North",
		"West",
		"East"
	],
	"6,19": [
		"West",
		"East"
	],
	"7,0": [
		"West",
		"East"
	],
	"7,1": [
		"East",
		"South"
	],
	"7,2": [
		"North",
		"South"
	],
	"7,3": [
		"North",
		"South"
	],
	"7,4": [
		"North"
	],
	"7,5": [
		"South",
		"East"
	],
	"7,6": [
		"West",
		"North",
		"South"
	],
	"7,7": [
		"North"
	],
	"7,8": [
		"East",
		"South"
	],
	"7,9": [
		"North",
		"West"
	],
	"7,10": [
		"West",
		"South"
	],
	"7,11": [
		"North",
		"East",
		"South"
	],
	"7,12": [
		"North",
		"East"
	],
	"7,13": [
		"West",
		"South",
		"East"
	],
	"7,14": [
		"North",
		"East"
	],
	"7,15": [
		"West",
		"South"
	],
	"7,16": [
		"North",
		"West"
	],
	"7,17": [
		"East",
		"West"
	],
	"7,18": [
		"West"
	],
	"7,19": [
		"West",
		"East"
	],
	"8,0": [
		"West",
		"East"
	],
	"8,1": [
		"South",
		"West"
	],
	"8,2": [
		"South",
		"North"
	],
	"8,3": [
		"South",
		"North"
	],
	"8,4": [
		"East",
		"North"
	],
	"8,5": [
		"West",
		"South"
	],
	"8,6": [
		"North",
		"East"
	],
	"8,7": [
		"East",
		"South"
	],
	"8,8": [
		"North",
		"West"
	],
	"8,9": [
		"South",
		"East"
	],
	"8,10": [
		"South",
		"North",
		"East"
	],
	"8,11": [
		"West",
		"North"
	],
	"8,12": [
		"West",
		"East"
	],
	"8,13": [
		"West",
		"East"
	],
	"8,14": [
		"West",
		"East"
	],
	"8,15": [
		"East",
		"South"
	],
	"8,16": [
		"North",
		"East"
	],
	"8,17": [
		"South",
		"West",
		"East"
	],
	"8,18": [
		"South",
		"North"
	],
	"8,19": [
		"West",
		"North"
	],
	"9,0": [
		"West",
		"East"
	],
	"9,1": [
		"East",
		"South"
	],
	"9,2": [
		"North",
		"South"
	],
	"9,3": [
		"North",
		"East"
	],
	"9,4": [
		"South",
		"West"
	],
	"9,5": [
		"South",
		"North"
	],
	"9,6": [
		"West",
		"North",
		"East"
	],
	"9,7": [
		"South",
		"West"
	],
	"9,8": [
		"South",
		"North"
	],
	"9,9": [
		"West",
		"North"
	],
	"9,10": [
		"West",
		"East"
	],
	"9,11": [
		"East"
	],
	"9,12": [
		"West",
		"East"
	],
	"9,13": [
		"West"
	],
	"9,14": [
		"West",
		"South"
	],
	"9,15": [
		"North",
		"West"
	],
	"9,16": [
		"West",
		"East"
	],
	"9,17": [
		"West",
		"South"
	],
	"9,18": [
		"North",
		"South"
	],
	"9,19": [
		"North",
		"East"
	],
	"10,0": [
		"West",
		"South"
	],
	"10,1": [
		"North",
		"East",
		"West"
	],
	"10,2": [
		"South",
		"East"
	],
	"10,3": [
		"West",
		"North"
	],
	"10,4": [
		"East",
		"South"
	],
	"10,5": [
		"North",
		"East"
	],
	"10,6": [
		"West",
		"South"
	],
	"10,7": [
		"North",
		"South"
	],
	"10,8": [
		"North",
		"South"
	],
	"10,9": [
		"North",
		"East"
	],
	"10,10": [
		"West",
		"South"
	],
	"10,11": [
		"North",
		"West"
	],
	"10,12": [
		"West",
		"South"
	],
	"10,13": [
		"North",
		"East"
	],
	"10,14": [
		"South",
		"East"
	],
	"10,15": [
		"East",
		"North"
	],
	"10,16": [
		"West",
		"South"
	],
	"10,17": [
		"North",
		"South"
	],
	"10,18": [
		"North",
		"East"
	],
	"10,19": [
		"West",
		"East"
	],
	"11,0": [
		"South",
		"East"
	],
	"11,1": [
		"West",
		"East",
		"North"
	],
	"11,2": [
		"West",
		"East"
	],
	"11,3": [
		"East"
	],
	"11,4": [
		"East",
		"West"
	],
	"11,5": [
		"West"
	],
	"11,6": [
		"South",
		"East"
	],
	"11,7": [
		"South",
		"North"
	],
	"11,8": [
		"East",
		"North"
	],
	"11,9": [
		"West"
	],
	"11,10": [
		"South"
	],
	"11,11": [
		"South",
		"North"
	],
	"11,12": [
		"East",
		"North"
	],
	"11,13": [
		"West",
		"East"
	],
	"11,14": [
		"West",
		"East"
	],
	"11,15": [
		"South",
		"West"
	],
	"11,16": [
		"South",
		"North"
	],
	"11,17": [
		"South",
		"North"
	],
	"11,18": [
		"West",
		"North"
	],
	"11,19": [
		"West",
		"East"
	],
	"12,0": [
		"West",
		"East"
	],
	"12,1": [
		"West",
		"East"
	],
	"12,2": [
		"West",
		"South"
	],
	"12,3": [
		"North",
		"West"
	],
	"12,4": [
		"South",
		"West"
	],
	"12,5": [
		"East",
		"North"
	],
	"12,6": [
		"West"
	],
	"12,7": [
	
		"East"
	],
	"12,8": [
		"South",
		"West",
		"East"
	],
	"12,9": [
		"East",
		"North"
	],
	"12,10": [
		
		"East",
		"South"
	],
	"12,11": [
		"North"
	],
	"12,12": [
		"South",
		"West"
	],
	"12,13": [
		"West",
		"North"
	],
	"12,14": [
		"West",
		"South"
	],
	"12,15": [
		"North",
		"South",
		"East"
	],
	"12,16": [
		"North",
		"South"
	],
	"12,17": [
		"North",
		"East"
	],
	"12,18": [
		"East"
	],
	"12,19": [
		"West",
		"East"
	],
	"13,0": [
		"West",
		"East"
	],
	"13,1": [
		"West",
		"South"
	],
	"13,2": [
		"North",
		"South"
	],
	"13,3": [
		"North",
		"South"
	],
	"13,4": [
		"North",
		"East",
		"South"
	],
	"13,5": [
		"South",
		"West",
		"North"
	],
	"13,6": [
		"South",
		"North"
	],
	"13,7": [
		"West",
		"North"
	],
	"13,8": [
		"West",
		"East"
	],
	"13,9": [
		"East",
		"West"
	],
	"13,10": [
		"West",
		"South"
	],
	"13,11": [
		"North",
		"East",
		"South"
	],
	"13,12": [
		"North",
		"East"
	],
	"13,13": [
		"East",
		"South"
	],
	"13,14": [
		"North",
		"East"
	],
	"13,15": [
		"West",
		"South"
	],
	"13,16": [
		"North",
		"East"
	],
	"13,17": [
		"West",
		"East"
	],
	"13,18": [
		"East",
		"West"
	],
	"13,19": [
		"West",
		"East"
	],
	"14,0": [
		"West",
		"South",
		"East"
	],
	"14,1": [
		"North",
		"South"
	],
	"14,2": [
		"North",
		"East"
	],
	"14,3": [
		"East"
	],
	"14,4": [
		"West",
		"South"
	],
	"14,5": [
		"North",
		"South"
	],
	"14,6": [
		"North",
		"East"
	],
	"14,7": [
		"East"
	],
	"14,8": [
		"West",
		"East"
	],
	"14,9": [
		"South",
		"West"
	],
	"14,10": [
		"South",
		"North"
	],
	"14,11": [
		"West",
		"North"
	],
	"14,12": [
		"West",
		"South"
	],
	"14,13": [
		"North",
		"West"
	],
	"14,14": [
		"West",
		"South"
	],
	"14,15": [
		"North",
		"East"
	],
	"14,16": [
		"West",
		"East"
	],
	"14,17": [
		"West",
		"East"
	],
	"14,18": [
		"East",
		"West"
	],
	"14,19": [
		"West",
		"East"
	],
	"15,0": [
		"West",
		"East"
	],
	"15,1": [
		"South",
		"East"
	],
	"15,2": [
		"West",
		"North"
	],
	"15,3": [
		"South",
		"East",
		"West"
	],
	"15,4": [
		"South",
		"North"
	],
	"15,5": [
		"South",
		"North"
	],
	"15,6": [
		"West",
		"North"
	],
	"15,7": [
		"East",
		"West"
	],
	"15,8": [
		"West",
		"South"
	],
	"15,9": [
		"North",
		"South"
	],
	"15,10": [
		"North",
		"East"
	],
	"15,11": [
		"South",
		"East"
	],
	"15,12": [
		"South",
		"North"
	],
	"15,13": [
		"South",
		"North"
	],
	"15,14": [
		"East",
		"North"
	],
	"15,15": [
		"West",
		"East"
	],
	"15,16": [
		"West"
	],
	"15,17": [
		"West",
		"East"
	],
	"15,18": [
		"South",
		"West"
	],
	"15,19": [
		"West",
		"North"
	],
	"16,0": [
		"West",
		"East"
	],
	"16,1": [
		"West",
		"East"
	],
	"16,2": [
		"East"
	],
	"16,3": [
		"West",
		"East"
	],
	"16,4": [
		"East",
		"South"
	],
	"16,5": [
		"North",
		"South"
	],
	"16,6": [
		"North",
		"East"
	],
	"16,7": [
		"East",
		"West",
		"South"
	],
	"16,8": [
		"North",
		"South"
	],
	"16,9": [
		"North"
	],
	"16,10": [
		"West",
		"East"
	],
	"16,11": [
		"West",
		"East"
	],
	"16,12": [
		"East",
		"South"
	],
	"16,13": [
		"North",
		"South"
	],
	"16,14": [
		"North",
		"West"
	],
	"16,15": [
		"West",
		"South"
	],
	"16,16": [
		"North",
		"East"
	],
	"16,17": [
		"West",
		"South"
	],
	"16,18": [
		"North",
		"South"
	],
	"16,19": [
		"North",
		"East"
	],
	"17,0": [
		"West",
		"East"
	],
	"17,1": [
		"West",
		"South"
	],
	"17,2": [
		"North",
		"West"
	],
	"17,3": [
		"West",
		"South"
	],
	"17,4": [
		"North",
		"West",
		"South"
	],
	"17,5": [
		"North",
		"East"
	],
	"17,6": [
		"West",
		"East"
	],
	"17,7": [
		"South",
		"West"
	],
	"17,8": [
		"South",
		"North"
	],
	"17,9": [
		"South",
		"North"
	],
	"17,10": [
		"West",
		"North"
	],
	"17,11": [
		"West",
		"East"
	],
	"17,12": [
		"East",
		"West"
	],
	"17,13": [
		"South",
		"East"
	],
	"17,14": [
		"South",
		"North"
	],
	"17,15": [
		"East",
		"North"
	],
	"17,16": [
		"West",
		"East"
	],
	"17,17": [
		"East",
		"South"
	],
	"17,18": [
		"North"
	],
	"17,19": [
		"West",
		"East"
	],
	"18,0": [
		"West",
		"East"
	],
	"18,1": [
		"South",
		"East"
	],
	"18,2": [
		"South",
		"North"
	],
	"18,3": [
		"South",
		"North"
	],
	"18,4": [
		"East",
		"North"
	],
	"18,5": [
		"West"
	],
	"18,6": [
		"West",
		"East"
	],
	"18,7": [
		"South",
		"East"
	],
	"18,8": [
		"East",
		"North"
	],
	"18,9": [
		"South",
		"East"
	],
	"18,10": [
		"East",
		"North"
	],
	"18,11": [
		"West",
		"East"
	],
	"18,12": [
		"South",
		"West"
	],
	"18,13": [
		"West",
		"North",
		"South"
	],
	"18,14": [
		"North",
		"East"
	],
	"18,15": [
		"East",
		"West"
	],
	"18,16": [
		"West",
		"East"
	],
	"18,17": [
		"South",
		"West",
		"East"
	],
	"18,18": [
		"East",
		"North"
	],
	"18,19": [
		"West",
		"East"
	],
	"19,0": [
		"West"
	],
	"19,1": [
		"West",
		"South"
	],
	"19,2": [
		"North",
		"South"
	],
	"19,3": [
		"North"
	],
	"19,4": [
		"South",
		"West"
	],
	"19,5": [
		"South",
		"North"
	],
	"19,6": [
		"West",
		"North"
	],
	"19,7": [
		"West"
	],
	"19,8": [
		"South",
		"West"
	],
	"19,9": [
		"West",
		"North"
	],
	"19,10": [
		"South",
		"West"
	],
	"19,11": [
		"West",
		"North"
	],
	"19,12": [
		"South"
	],
	"19,13": [
		"South",
		"North"
	],
	"19,14": [
		"West",
		"North"
	],
	"19,15": [
		"South",
		"West"
	],
	"19,16": [
		"West",
		"North",
		"South"
	],
	"19,17": [
		"West",
		"North"
	],
	"19,18": [
		"South",
		"West"
	],
	"19,19": [
		"West",
		"North"
	]
}