{
	"0,0": [
		"South",
		"East"
	],
	"0,1": [
		"East",
		"South",
		"North"
	],
	"0,2": [
		"North",
		"South"
	],
	"0,3": [
		"North",
		"East"
		
	],
	"0,4": [
		"North",
		"South"
	],
	"0,5": [
		
		"East",
		"South"
	],
	"0,6": [
		"North",
		"South"
	],
	"0,7": [
		"North",
		"South"
	],
	"0,8": [
		
		"South"
	],
	"0,9": [
		"North"
	],
	"0,10": [
		"East",
		"South"
	],
	"0,11": [
		"North",
		"South"
	],
	"0,12": [
		"North",
		"East"
	],
	"0,13": [
		"East",
		"South"
	],
	"0,14": [
		"North"
	],
	"1,0": [
		"West",
		"East"
	],
	"1,1": [
		"East",
		"West"
	],
	"1,2": [
		"South"
	],
	"1,3": [
		"West",
		"North"
	],
	"1,4": [
		"East"
	],
	"1,5": [
		"West",
		"East"
	],
	"1,6": [
		"South",
		"East"
	],
	"1,7": [
		"South",
		"North"
	],
	"1,8": [
		"South",
		"North"
	],
	"1,9": [
		"East",
		"North",
		
		"South"
	],
	"1,10": [
		"West",
		"East"
	],
	"1,11": [
		"South",
		"East"
	],
	"1,12": [
		"West",
		"East"
	],
	"1,13": [
		"South",
		"West"
	],
	"1,14": [
		"East",
		"North"
	],
	"2,0": [
		"West",
		"East"
	],
	"2,1": [
		"South",
		"West"
	],
	"2,2": [
		"East",
		"North"
	],
	"2,3": [
		"South",
		"East"
	],
	"2,4": [
		"South",
		"North",
		"West"
	],
	"2,5": [
		"West","East",
		"North"
	],
	"2,6": [
		"West",
		"South"
	],
	"2,7": [
		"North",
		"East"
	],
	"2,8": [
		"North",
		"East"
	],
	"2,9": [
		"South",
		"West"
	],
	"2,10": [
		"West",
		"North"
	],
	"2,11": [
		"West",
		"East"
	],
	"2,12": [
		"West",
		"South"
	],
	"2,13": [
		"North",
		"East"
	],
	"2,14": [
		"East",
		"West"
	],
	"3,0": [
		"West",
		"East"
	],
	"3,1": [
		"East",
		"South"
	],
	"3,2": [
		"North",
		"West"
	],
	"3,3": [
		"South",
		"East"
	],
	"3,4": [
		"South",
		"North"
	],
	"3,5": [
		"East",
		"North"
	],
	"3,6": [
		"South",
		"East"
	],
	"3,7": [
		"East",
		"North"
	],
	"3,8": [
		"West",
		"South"
	],
	"3,9": [
		"North",
		"East"
	],
	"3,10": [
		"South",
		"East"
	],
	"3,11": [
		"West",
		"South",
		"North"
	],
	"3,12": [
		"North",
		"East"
	],
	"3,13": [
		"East",
		"West"
	],
	"3,14": [
		"East",
		"West"
	],
	"4,0": [
		"West",
		"East"
	],
	"4,1": [
		"South",
		"West"
	],
	"4,2": [
		"South",
		"North"
	],
	"4,3": [
		"West",
		"North"
	],
	"4,4": [
		"East",
		"South"
	],
	"4,5": [
		"North",
		"West"
	],
	"4,6": [
		"West",
		"East"
	],
	"4,7": [
		"South",
		"West"
	],
	"4,8": [
		"South",
		"North"
	],
	"4,9": [
		"West",
		"North"
	],
	"4,10": [
		"West",
		"East"
	],
	"4,11": [
		"South",
		"East"
	],
	"4,12": [
		"West",
		"North"
	],
	"4,13": [
		"East",
		"South",
		"West"
	],
	"4,14": [
		"North",
		"West",
		"East"
	],
	"5,0": [
		"West",
		"East"
	],
	"5,1": [
		"South",
		"East"
	],
	"5,2": [
		"South",
		"North"
	],
	"5,3": [
		"East",
		"North"
	],
	"5,4": [
		"South",
		"West"
	],
	"5,5": [
		"South",
		"North"
	],
	"5,6": [
		"West",
		"North"
	],
	"5,7": [
		"South",
		"East"
	],
	"5,8": [
		"South",
		"East",
		"North"
	],
	"5,9": [
		"South",
		"North"
	],
	"5,10": [
		"West",
		"North"
	],
	"5,11": [
		"West",
		"South"
	],
	"5,12": [
		"North",
		"South"
	],
	"5,13": [
		"North",
		"West"
	],
	"5,14": [
		"West",
		"East"
	],
	"6,0": [
		"West",
		"East"
	],
	"6,1": [
		"West",
		"South"
	],
	"6,2": [
		"North"
	],
	"6,3": [
		"South",
		"West"
	],
	"6,4": [
		"East",
		"North"
	],
	"6,5": [
		"South"
	],
	"6,6": [
		"South",
		"North"
	],
	"6,7": [
		"West",
		"North"
	],
	"6,8": [
		"West",
		"East",
		"South"
	],
	"6,9": [
		"North",
		"South"
	],
	"6,10": [
		"North",
		"South"
	],
	"6,11": [
		"North"
	],
	"6,12": [
		"South",
		"East"
	],
	"6,13": [
		"East",
		"North"
	],
	"6,14": [
		"West",
		"East"
	],
	"7,0": [
		"West",
		"South"
	],
	"7,1": [
		"North",
		"South"
	],
	"7,2": [
		"North",
		"East"
	],
	"7,3": [
		"East"
	],
	"7,4": [
		"South",
		"West"
	],
	"7,5": [
		"South",
		"North"
	],
	"7,6": [
		"South",
		"North"
	],
	"7,7": [
		"East",
		"North"
	],
	"7,8": [
		"West",
		"South"
	],
	"7,9": [
		"North",
		"South"
	],
	"7,10": [
		"North",
		"East"
	],
	"7,11": [
		"South",
		"East"
	],
	"7,12": [
		"West",
		"North"
	],
	"7,13": [
		"South",
		"West"
	],
	"7,14": [
		"West",
		"North"
	],
	"8,0": [
		"South",
		"East"
	],
	"8,1": [
		"South",
		"North"
	],
	"8,2": [
		"West",
		"North"
	],
	"8,3": [
		"East",
		"South",
		"West"
	],
	"8,4": [
		"North",
		"South"
	],
	"8,5": [
		"North",
		"South"
	],
	"8,6": [
		"North",
		"South"
	],
	"8,7": [
		"North",
		"West",
		"South"
	],
	"8,8": [
		"North",
		"South"
	],
	"8,9": [
		"North"
	],
	"8,10": [
		"West",
		"East"
	],
	"8,11": [
		"West",
		"South"
	],
	"8,12": [
		"North",
		"South"
	],
	"8,13": [
		"North",
		"South"
	],
	"8,14": [
		"North",
		"East"
	],
	"9,0": [
		"West",
		"South",
		"East"
	],
	"9,1": [
		"North",
		"South"
	],
	"9,2": [
		"North",
		"South"
	],
	"9,3": [
		"North",
		"West"
	],
	"9,4": [
		"East",
		"South"
	],
	"9,5": [
		"North",
		"South"
	],
	"9,6": [
		"North",
		"South"
	],
	"9,7": [
		"North",
		"East"
	],
	"9,8": [
		"South",
		"East"
	],
	"9,9": [
		"East",
		"North"
	],
	"9,10": [
		"West",
		"East"
	],
	"9,11": [
		"South",
		"East"
	],
	"9,12": [
		"South",
		"North"
	],
	"9,13": [
		"South",
		"North"
	],
	"9,14": [
		"West",
		"North"
	],
	"10,0": [
		"West",
		"East"
	],
	"10,1": [
		"East"
	],
	"10,2": [
		"South",
		"East"
	],
	"10,3": [
		"South",
		"North"
	],
	"10,4": [
		"South",
		"North",
		"West"
	],
	"10,5": [
		"South",
		"North"
	],
	"10,6": [
		"East",
		"North"
	],
	"10,7": [
		"West"
	],
	"10,8": [
		"West",
		"East"
	],
	"10,9": [
		"East",
		"West"
	],
	"10,10": [
		"West",
		"East"
	],
	"10,11": [
		"West",
		"East",
		"South"
	],
	"10,12": [
		"North",
		"East"
	],
	"10,13": [
		"South",
		"East"
	],
	"10,14": [
		"East",
		"North"
	],
	"11,0": [
		"West",
		"East"
	],
	"11,1": [
		"South",
		"East",
		"West"
	],
	"11,2": [
		"West",
		"North",
		"South",
		"East"
	],
	"11,3": [
		"North",
		"South"
	],
	"11,4": [
		"North",
		"South"
	],
	"11,5": [
		"North"
	],
	"11,6": [
		"South",
		"West"
	],
	"11,7": [
		"East",
		"North"
	],
	"11,8": [
		"West",
		"East"
	],
	"11,9": [
		"South",
		"West"
	],
	"11,10": [
		"West",
		"North"
	],
	"11,11": [
		"West",
		"East"
	],
	"11,12": [
		"West",
		"East"
	],
	"11,13": [
		"West"
	],
	"11,14": [
		"East",
		"West"
	],
	"12,0": [
		"West"
	],
	"12,1": [
		"West",
		"East"
	],
	"12,2": [
		"West"
	],
	"12,3": [
		"East",
		"South"
	],
	"12,4": [
		"North",
		"South"
	],
	"12,5": [
		"North",
		"East"
	],
	"12,6": [
		"East"
	],
	"12,7": [
		"East",
		"West"
	],
	"12,8": [
		"West",
		"East"
	],
	"12,9": [
		"South"
	],
	"12,10": [
		"South",
		"North"
	],
	"12,11": [
		"West",
		"North"
	],
	"12,12": [
		"West",
		"South"
	],
	"12,13": [
		"North",
		"South"
	],
	"12,14": [
		"North",
		"West"
	],
	"13,0": [
		"South",
		"East"
	],
	"13,1": [
		"West",
		"North"
	],
	"13,2": [
		"East",
		"South"
	],
	"13,3": [
		"North",
		"West",
		"South"
	],
	"13,4": [
		"North"
	],
	"13,5": [
		"West",
		"East"
	],
	"13,6": [
		"East",
		"South",
		"West"
	],
	"13,7": [
		"North",
		"West"
	],
	"13,8": [
		"West",
		"South"
	],
	"13,9": [
		"North",
		"South"
	],
	"13,10": [
		"North",
		"South"
	],
	"13,11": [
		"North",
		"South"
	],
	"13,12": [
		"North",
		"East",
		"South"
	],
	"13,13": [
		"North",
		"South"
	],
	"13,14": [
		"North",
		"East"
	],
	"14,0": [
		"West",
		"South"
	],
	"14,1": [
		"North",
		"South"
	],
	"14,2": [
		"North",
		"West"
	],
	"14,3": [
		"South"
	],
	"14,4": [
		"South",
		"North"
	],
	"14,5": [
		"West",
		"North"
	],
	"14,6": [
		"South",
		"West"
	],
	"14,7": [
		"South",
		"North"
	],
	"14,8": [
		"South",
		"North"
	],
	"14,9": [
		"South",
		"North"
	],
	"14,10": [
		"South",
		"North"
	],
	"14,11": [
		"South",
		"North"
	],
	"14,12": [
		"West",
		"North"
	],
	"14,13": [
		"South"
	],
	"14,14": [
		"West",
		"North"
	]
}