{
	"0,0": [
		"East"
	],
	"0,1": [
		"South",
		"East"
	],
	"0,2": [
		"South",
		"North"
	],
	"0,3": [
		"East",
		"North",
		"South"
	],
	"0,4": [
		"North",
		"East"
	],
	"0,5": [
		"South",
		"East"
	],
	"0,6": [
		"South",
		"North"
	],
	"0,7": [
		"South",
		"North"
	],
	"0,8": [
		"South",
		"North"
	],
	"0,9": [
		"East",
		"North"
	],
	"1,0": [
		"South",
		"East",
		"West"
	],
	"1,1": [
		"West",
		"North"
	],
	"1,2": [
		
		"East"
	],
	"1,3": [
		"East",
		"West"
	],
	"1,4": [
		"West"
	],
	"1,5": [
		"West",
		"East"
	],
	"1,6": [
		"East",
		"South"
	],
	"1,7": [
		"North",
		"South"
	],
	"1,8": [
		"North",
		"East"
	],
	"1,9": [
		"East",
		"West"
	],
	"2,0": [
		"West",
		"South"
	],
	"2,1": [
		"North",
		"East"
	],
	"2,2": [
		"West",
		"East"
	],
	"2,3": [
		"South",
		"West"
	],
	"2,4": [
		"South",
		"North"
	],
	"2,5": [
		"West",
		"North"
	],
	"2,6": [
		"East",
		"South",
		"West"
	],
	"2,7": [
		"North",
		"East"
	],
	"2,8": [
		"West",
		"South"
	],
	"2,9": [
		"North",
		"West"
	],
	"3,0": [
		"East"
	],
	"3,1": [
		"West",
		"East"
	],
	"3,2": [
		"West",
		"South"
	],
	"3,3": [
		"North",
		"South"
	],
	"3,4": [
		"North",
		"South"
	],
	"3,5": [
		"North",
		"East"
	],
	"3,6": [
		"East",
		"West"
	],
	"3,7": [
		"West",
		"South"
	],
	"3,8": [
		"North",
		"South"
	],
	"3,9": [
		"North",
		"East"
	],
	"4,0": [
		"South",
		"West",
		"East"
	],
	"4,1": [
		"West",
		"North"
	],
	"4,2": [
		"South"
	],
	"4,3": [
		"East",
		"North"
	],
	"4,4": [
		"South",
		"East"
	],
	"4,5": [
		"West",
		"North"
	],
	"4,6": [
		"West",
		"South"
	],
	"4,7": [
		"North",
		"East"
	],
	"4,8": [
		"South"
	],
	"4,9": [
		"West",
		"North"
	],
	"5,0": [
		"West",
		"East"
	],
	"5,1": [
		"East",
		"South"
	],
	"5,2": [
		"North",
		"East"
	],
	"5,3": [
		"South",
		"West",
		"East"
	],
	"5,4": [
		"West",
		"North"
	],
	"5,5": [
		"South",
		"East"
	],
	"5,6": [
		"East",
		"North"
	],
	"5,7": [
		"West",
		"South"
	],
	"5,8": [
		"North",
		"South"
	],
	"5,9": [
		"North",
		"East"
	],
	"6,0": [
		"West",
		"East"
	],
	"6,1": [
		"East",
		"West"
	],
	"6,2": [
		"West",
		"East"
	],
	"6,3": [
		"South",
		"West"
	],
	"6,4": [
		
		"East",
		"North"
	],
	"6,5": [
		"West"
	],
	"6,6": [
		"East",
		"West"
	],
	"6,7": [
		"South",
		"East"
	],
	"6,8": [
		"South",
		"North"
	],
	"6,9": [
		"West",
		"North"
	],
	"7,0": [
		"East",
		"South",
		"West"
	],
	"7,1": [
		"North",
		"West"
	],
	"7,2": [
		"West",
		"South"
	],
	"7,3": [
		"North",
		"East"
	],
	"7,4": [
		"West",
		"South"
	],
	"7,5": [
		"North",
		"East"
	],
	"7,6": [
		"South",
		"West"
	],
	"7,7": [
		"West",
		"North",
		"South"
	],
	"7,8": [
		"North",
		"East",
		"South"
	],
	"7,9": [
		"North"
	],
	"8,0": [
		
		"West"
	],
	"8,1": [
		"South",
		"East"
	],
	"8,2": [
		"South",
		"North"
	],
	"8,3": [
		"West",
		"North"
	],
	"8,4": [
		"South",
		"East"
	],
	"8,5": [
		"West",
		"North"
	],
	"8,6": [
		"South",
		"East"
	],
	"8,7": [
		"East",
		"North"
	],
	"8,8": [
		"West",
		"South"
	],
	"8,9": [
		"North",
		"East"
	],
	"9,0": [
		"South"
	],
	"9,1": [
		"South",
		"North",
		"West"
	],
	"9,2": [
		"South",
		"North"
	],
	"9,3": [
		"South",
		"North"
	],
	"9,4": [
		"West",
		"North"
	],
	"9,5": [
		"South"
	],
	"9,6": [
		"West",
		"North"
	],
	"9,7": [
		"South",
		"West"
	],
	"9,8": [
		"South",
		"North"
	],
	"9,9": [
		"West",
		"North"
	]
}